#
# There is insufficient memory for the Java Runtime Environment to continue.
# Native memory allocation (mmap) failed to map 130023424 bytes for G1 virtual space
# Possible reasons:
#   The system is out of physical RAM or swap space
#   The process is running with CompressedOops enabled, and the Java Heap may be blocking the growth of the native heap
# Possible solutions:
#   Reduce memory load on the system
#   Increase physical memory or swap space
#   Check if swap backing store is full
#   Decrease Java heap size (-Xmx/-Xms)
#   Decrease number of Java threads
#   Decrease Java thread stack sizes (-Xss)
#   Set larger code cache with -XX:ReservedCodeCacheSize=
#   JVM is running with Unscaled Compressed Oops mode in which the Java heap is
#     placed in the first 4GB address space. The Java Heap base address is the
#     maximum limit for the native heap growth. Please use -XX:HeapBaseMinAddress
#     to set the Java Heap base and to place the Java Heap above 4GB virtual address.
# This output file may be truncated or incomplete.
#
#  Out of Memory Error (os_windows.cpp:3536), pid=4764, tid=17840
#
# JRE version:  (19.0.2+7) (build )
# Java VM: Java HotSpot(TM) 64-Bit Server VM (19.0.2+7-44, mixed mode, sharing, tiered, compressed oops, compressed class ptrs, g1 gc, windows-amd64)
# No core dump will be written. Minidumps are not enabled by default on client versions of Windows
#

---------------  S U M M A R Y ------------

Command Line: -Dfile.encoding=UTF-8 --module-path=C:\Users\admin\Documents\NetBeansProjects\Quiz Application\build\classes quiz.application.Score

Host: 11th Gen Intel(R) Core(TM) i5-1135G7 @ 2.40GHz, 8 cores, 7G,  Windows 10 , 64 bit Build 19041 (10.0.19041.3155)
Time: Sun Jul 23 16:55:32 2023 India Standard Time elapsed time: 0.068691 seconds (0d 0h 0m 0s)

---------------  T H R E A D  ---------------

Current thread (0x0000024fb5267f40):  JavaThread "Unknown thread" [_thread_in_vm, id=17840, stack(0x0000008959800000,0x0000008959900000)]

Stack: [0x0000008959800000,0x0000008959900000]
Native frames: (J=compiled Java code, j=interpreted, Vv=VM code, C=native code)
V  [jvm.dll+0x6ee21a]
V  [jvm.dll+0x85765e]
V  [jvm.dll+0x85904e]
V  [jvm.dll+0x859703]
V  [jvm.dll+0x28298f]
V  [jvm.dll+0x6eb009]
V  [jvm.dll+0x6dfbaa]
V  [jvm.dll+0x3573f6]
V  [jvm.dll+0x35ee56]
V  [jvm.dll+0x3b541e]
V  [jvm.dll+0x3b564f]
V  [jvm.dll+0x32c9ea]
V  [jvm.dll+0x32d89e]
V  [jvm.dll+0x821780]
V  [jvm.dll+0x3c2661]
V  [jvm.dll+0x801f51]
V  [jvm.dll+0x44ae8f]
V  [jvm.dll+0x44c811]
C  [jli.dll+0x5287]
C  [ucrtbase.dll+0x21bb2]
C  [KERNEL32.DLL+0x17614]
C  [ntdll.dll+0x526b1]


---------------  P R O C E S S  ---------------

Threads class SMR info:
_java_thread_list=0x00007ffd8d69d048, length=0, elements={
}

Java Threads: ( => current thread )

Other Threads:
  0x0000024fb52c8bf0 WorkerThread "GC Thread#0" [stack: 0x0000008959900000,0x0000008959a00000] [id=7304]
  0x0000024fb52da1f0 ConcurrentGCThread "G1 Main Marker" [stack: 0x0000008959a00000,0x0000008959b00000] [id=9788]
  0x0000024fb52dab30 WorkerThread "G1 Conc#0" [stack: 0x0000008959b00000,0x0000008959c00000] [id=6080]

[error occurred during error reporting (printing all threads), id 0xc0000005, EXCEPTION_ACCESS_VIOLATION (0xc0000005) at pc=0x00007ffd8ce5d427]

VM state: not at safepoint (not fully initialized)

VM Mutex/Monitor currently owned by a thread:  ([mutex/lock_event])
[0x0000024fb5263950] Heap_lock - owner thread: 0x0000024fb5267f40

Heap address: 0x0000000084400000, size: 1980 MB, Compressed Oops mode: 32-bit

CDS archive(s) mapped at: [0x0000000000000000-0x0000000000000000-0x0000000000000000), size 0, SharedBaseAddress: 0x0000000800000000, ArchiveRelocationMode: 0.
Narrow klass base: 0x0000000000000000, Narrow klass shift: 0, Narrow klass range: 0x0

GC Precious Log:
 CardTable entry size: 512
 Card Set container configuration: InlinePtr #cards 5 size 8 Array Of Cards #cards 12 size 40 Howl #buckets 4 coarsen threshold 1843 Howl Bitmap #cards 512 size 80 coarsen threshold 460 Card regions per heap region 1 cards per card region 2048

Heap:
 garbage-first heap   total 0K, used 0K [0x0000000084400000, 0x0000000100000000)
  region size 1024K, 0 young (0K), 0 survivors (0K)

[error occurred during error reporting (printing heap information), id 0xc0000005, EXCEPTION_ACCESS_VIOLATION (0xc0000005) at pc=0x00007ffd8d266649]

GC Heap History (0 events):
No events

Dll operation events (1 events):
Event: 0.005 Loaded shared library C:\Program Files\Java\jdk-19\bin\java.dll

Deoptimization events (0 events):
No events

Classes loaded (0 events):
No events

Classes unloaded (0 events):
No events

Classes redefined (0 events):
No events

Internal exceptions (0 events):
No events

VM Operations (0 events):
No events

Events (0 events):
No events


Dynamic libraries:
0x00007ff7c37c0000 - 0x00007ff7c37d0000 	C:\Program Files\Java\jdk-19\bin\java.exe
0x00007ffdd69d0000 - 0x00007ffdd6bc8000 	C:\Windows\SYSTEM32\ntdll.dll
0x00007ffdd5940000 - 0x00007ffdd59ff000 	C:\Windows\System32\KERNEL32.DLL
0x00007ffdd43e0000 - 0x00007ffdd46d6000 	C:\Windows\System32\KERNELBASE.dll
0x00007ffdd40b0000 - 0x00007ffdd41b0000 	C:\Windows\System32\ucrtbase.dll
0x00007ffdba4a0000 - 0x00007ffdba4bb000 	C:\Program Files\Java\jdk-19\bin\VCRUNTIME140.dll
0x00007ffdc4d00000 - 0x00007ffdc4d18000 	C:\Program Files\Java\jdk-19\bin\jli.dll
0x00007ffdd6870000 - 0x00007ffdd691f000 	C:\Windows\System32\ADVAPI32.dll
0x00007ffdd67d0000 - 0x00007ffdd686e000 	C:\Windows\System32\msvcrt.dll
0x00007ffdd5e80000 - 0x00007ffdd5f1c000 	C:\Windows\System32\sechost.dll
0x00007ffdd6690000 - 0x00007ffdd67b6000 	C:\Windows\System32\RPCRT4.dll
0x00007ffdd5f80000 - 0x00007ffdd611d000 	C:\Windows\System32\USER32.dll
0x00007ffdd4a00000 - 0x00007ffdd4a22000 	C:\Windows\System32\win32u.dll
0x00007ffdb98a0000 - 0x00007ffdb9b3a000 	C:\Windows\WinSxS\amd64_microsoft.windows.common-controls_6595b64144ccf1df_6.0.19041.1110_none_60b5254171f9507e\COMCTL32.dll
0x00007ffdd4a30000 - 0x00007ffdd4a5c000 	C:\Windows\System32\GDI32.dll
0x00007ffdd46e0000 - 0x00007ffdd47f5000 	C:\Windows\System32\gdi32full.dll
0x00007ffdd4310000 - 0x00007ffdd43ad000 	C:\Windows\System32\msvcp_win.dll
0x00007ffdcde50000 - 0x00007ffdcde5a000 	C:\Windows\SYSTEM32\VERSION.dll
0x00007ffdd5770000 - 0x00007ffdd57a0000 	C:\Windows\System32\IMM32.DLL
0x00007ffdc8990000 - 0x00007ffdc899c000 	C:\Program Files\Java\jdk-19\bin\vcruntime140_1.dll
0x00007ffd92830000 - 0x00007ffd928be000 	C:\Program Files\Java\jdk-19\bin\msvcp140.dll
0x00007ffd8cb20000 - 0x00007ffd8d7e0000 	C:\Program Files\Java\jdk-19\bin\server\jvm.dll
0x00007ffdba440000 - 0x00007ffdba467000 	C:\Windows\SYSTEM32\WINMM.dll
0x00007ffdc8b50000 - 0x00007ffdc8b59000 	C:\Windows\SYSTEM32\WSOCK32.dll
0x00007ffdd5cd0000 - 0x00007ffdd5d3b000 	C:\Windows\System32\WS2_32.dll
0x00007ffdd28e0000 - 0x00007ffdd28f2000 	C:\Windows\SYSTEM32\kernel.appcore.dll
0x00007ffdc7e60000 - 0x00007ffdc7e6a000 	C:\Program Files\Java\jdk-19\bin\jimage.dll
0x00007ffdd1e50000 - 0x00007ffdd2034000 	C:\Windows\SYSTEM32\DBGHELP.DLL
0x00007ffdbb450000 - 0x00007ffdbb484000 	C:\Windows\SYSTEM32\dbgcore.DLL
0x00007ffdd4800000 - 0x00007ffdd4882000 	C:\Windows\System32\bcryptPrimitives.dll
0x00007ffdba470000 - 0x00007ffdba496000 	C:\Program Files\Java\jdk-19\bin\java.dll

dbghelp: loaded successfully - version: 4.0.5 - missing functions: none
symbol engine: initialized successfully - sym options: 0x614 - pdb path: .;C:\Program Files\Java\jdk-19\bin;C:\Windows\SYSTEM32;C:\Windows\WinSxS\amd64_microsoft.windows.common-controls_6595b64144ccf1df_6.0.19041.1110_none_60b5254171f9507e;C:\Program Files\Java\jdk-19\bin\server

VM Arguments:
jvm_args: -Dfile.encoding=UTF-8 --module-path=C:\Users\admin\Documents\NetBeansProjects\Quiz Application\build\classes 
java_command: quiz.application.Score
java_class_path (initial): C:\Users\admin\Documents\NetBeansProjects\Quiz Application\build\classes
Launcher Type: SUN_STANDARD

[Global flags]
     intx CICompilerCount                          = 4                                         {product} {ergonomic}
     uint ConcGCThreads                            = 2                                         {product} {ergonomic}
     uint G1ConcRefinementThreads                  = 8                                         {product} {ergonomic}
   size_t G1HeapRegionSize                         = 1048576                                   {product} {ergonomic}
    uintx GCDrainStackTargetSize                   = 64                                        {product} {ergonomic}
   size_t InitialHeapSize                          = 130023424                                 {product} {ergonomic}
   size_t MarkStackSize                            = 4194304                                   {product} {ergonomic}
   size_t MaxHeapSize                              = 2076180480                                {product} {ergonomic}
   size_t MinHeapDeltaBytes                        = 1048576                                   {product} {ergonomic}
   size_t MinHeapSize                              = 8388608                                   {product} {ergonomic}
    uintx NonNMethodCodeHeapSize                   = 5839372                                {pd product} {ergonomic}
    uintx NonProfiledCodeHeapSize                  = 122909434                              {pd product} {ergonomic}
    uintx ProfiledCodeHeapSize                     = 122909434                              {pd product} {ergonomic}
    uintx ReservedCodeCacheSize                    = 251658240                              {pd product} {ergonomic}
     bool SegmentedCodeCache                       = true                                      {product} {ergonomic}
   size_t SoftMaxHeapSize                          = 2076180480                             {manageable} {ergonomic}
     bool UseCompressedClassPointers               = true                           {product lp64_product} {ergonomic}
     bool UseCompressedOops                        = true                           {product lp64_product} {ergonomic}
     bool UseG1GC                                  = true                                      {product} {ergonomic}
     bool UseLargePagesIndividualAllocation        = false                                  {pd product} {ergonomic}

Logging:
Log output configuration:
 #0: stdout all=warning uptime,level,tags foldmultilines=false
 #1: stderr all=off uptime,level,tags foldmultilines=false

Environment Variables:
PATH=C:\Program Files\Common Files\Oracle\Java\javapath;C:\Windows\system32;C:\Windows;C:\Windows\System32\Wbem;C:\Windows\System32\WindowsPowerShell\v1.0\;C:\Windows\System32\OpenSSH\;C:\Program Files\nodejs\;C:\Program Files\MySQL\MySQL Shell 8.0\bin\;C:\Users\admin\AppData\Local\Microsoft\WindowsApps;C:\Users\admin\AppData\Local\Programs\Microsoft VS Code\bin;C:\MinGW\bin;C:\Users\admin\AppData\Roaming\npm;C:\Program Files\Java\IntelliJ IDEA Community Edition 2022.3.2\bin;
USERNAME=admin
OS=Windows_NT
PROCESSOR_IDENTIFIER=Intel64 Family 6 Model 140 Stepping 1, GenuineIntel
TMP=C:\Users\admin\AppData\Local\Temp
TEMP=C:\Users\admin\AppData\Local\Temp



---------------  S Y S T E M  ---------------

OS:
 Windows 10 , 64 bit Build 19041 (10.0.19041.3155)
OS uptime: 6 days 19:46 hours

CPU: total 8 (initial active 8) (4 cores per cpu, 2 threads per core) family 6 model 140 stepping 1 microcode 0xa4, cx8, cmov, fxsr, ht, mmx, 3dnowpref, sse, sse2, sse3, ssse3, sse4.1, sse4.2, popcnt, lzcnt, tsc, tscinvbit, avx, avx2, aes, erms, clmul, bmi1, bmi2, adx, avx512f, avx512dq, avx512cd, avx512bw, avx512vl, sha, fma, vzeroupper, avx512_vpopcntdq, avx512_vpclmulqdq, avx512_vaes, avx512_vnni, clflush, clflushopt, clwb, avx512_vbmi2, avx512_vbmi, rdtscp, rdpid, fsrm, gfni, avx512_bitalg

Memory: 4k page, system-wide physical 7914M (534M free)
TotalPageFile size 27070M (AvailPageFile size 65M)
current process WorkingSet (physical memory assigned to process): 10M, peak: 10M
current process commit charge ("private bytes"): 60M, peak: 184M

vm_info: Java HotSpot(TM) 64-Bit Server VM (19.0.2+7-44) for windows-amd64 JRE (19.0.2+7-44), built on 2022-11-30T18:02:09Z by "mach5one" with MS VC++ 17.1 (VS2022)

END.
